{
  "version": "2.1",
  "licenses": [
    {
      "id": "Apache-2.0",
      "name": "Apache License 2.0",
      "url": "https://opensource.org/licenses/Apache-2.0"
    },
    {
      "id": "LGPL-2.1",
      "name": "GNU Lesser General Public License v2.1 only",
      "url": "https://opensource.org/licenses/LGPL-2.1"
    },
    {
      "id": "MIT",
      "name": "MIT License",
      "url": "https://opensource.org/licenses/MIT"
    },
    {
      "id": "MPL-2.0",
      "name": "Mozilla Public License 2.0",
      "url": "https://opensource.org/licenses/MPL-2.0"
    },
    {
      "id": "bsd",
      "name": "BSD",
      "url": "http://en.wikipedia.org/wiki/BSD_licenses"
    },
    {
      "id": "cddl + gplv2 with classpath exception",
      "name": "CDDL + GPLv2 with classpath exception",
      "url": ""
    }
  ],
  "dependencies": [
    {
      "name": "antlr",
      "version": "2.7.7",
      "package_manager": "maven",
      "path": "pom.xml",
      "licenses": [
        "bsd"
      ]
    },
    {
      "name": "commons-beanutils",
      "version": "1.8.3",
      "package_manager": "maven",
      "path": "pom.xml",
      "licenses": [
        "Apache-2.0"
      ]
    },
    {
      "name": "commons-io",
      "version": "2.3",
      "package_manager": "maven",
      "path": "pom.xml",
      "licenses": [
        "Apache-2.0"
      ]
    },
    {
      "name": "commons-lang",
      "version": "2.5",
      "package_manager": "maven",
      "path": "pom.xml",
      "licenses": [
        "Apache-2.0"
      ]
    },
    {
      "name": "commons-lang3",
      "version": "3.4",
      "package_manager": "maven",
      "path": "pom.xml",
      "licenses": [
        "Apache-2.0"
      ]
    },
    {
      "name": "fastutil",
      "version": "7.0.2",
      "package_manager": "maven",
      "path": "pom.xml",
      "licenses": [
        "Apache-2.0"
      ]
    },
    {
      "name": "findbugs-annotations",
      "version": "1.3.9-1",
      "package_manager": "maven",
      "path": "pom.xml",
      "licenses": [
        "Apache-2.0"
      ]
    },
    {
      "name": "geode-common",
      "version": "1.1.1",
      "package_manager": "maven",
      "path": "pom.xml",
      "licenses": [
        "Apache-2.0"
      ]
    },
    {
      "name": "geode-core",
      "version": "1.1.1",
      "package_manager": "maven",
      "path": "pom.xml",
      "licenses": [
        "Apache-2.0"
      ]
    },
    {
      "name": "geode-json",
      "version": "1.1.1",
      "package_manager": "maven",
      "path": "pom.xml",
      "licenses": [
        "Apache-2.0"
      ]
    },
    {
      "name": "jackson-annotations",
      "version": "2.9.0",
      "package_manager": "maven",
      "path": "pom.xml",
      "licenses": [
        "Apache-2.0"
      ]
    },
    {
      "name": "jackson-core",
      "version": "2.9.2",
      "package_manager": "maven",
      "path": "pom.xml",
      "licenses": [
        "Apache-2.0"
      ]
    },
    {
      "name": "jackson-databind",
      "version": "2.9.2",
      "package_manager": "maven",
      "path": "pom.xml",
      "licenses": [
        "Apache-2.0"
      ]
    },
    {
      "name": "javax.resource-api",
      "version": "1.7",
      "package_manager": "maven",
      "path": "pom.xml",
      "licenses": [
        "cddl + gplv2 with classpath exception"
      ]
    },
    {
      "name": "javax.transaction-api",
      "version": "1.2",
      "package_manager": "maven",
      "path": "pom.xml",
      "licenses": [
        "cddl + gplv2 with classpath exception"
      ]
    },
    {
      "name": "jgroups",
      "version": "3.6.10.Final",
      "package_manager": "maven",
      "path": "pom.xml",
      "licenses": [
        "Apache-2.0"
      ]
    },
    {
      "name": "jna",
      "version": "4.0.0",
      "package_manager": "maven",
      "path": "pom.xml",
      "licenses": [
        "Apache-2.0",
        "LGPL-2.1"
      ]
    },
    {
      "name": "jopt-simple",
      "version": "5.0.1",
      "package_manager": "maven",
      "path": "pom.xml",
      "licenses": [
        "MIT"
      ]
    },
    {
      "name": "log4j-api",
      "version": "2.6.1",
      "package_manager": "maven",
      "path": "pom.xml",
      "licenses": [
        "Apache-2.0"
      ]
    },
    {
      "name": "log4j-core",
      "version": "2.6.1",
      "package_manager": "maven",
      "path": "pom.xml",
      "licenses": [
        "Apache-2.0"
      ]
    },
    {
      "name": "maven-artifact",
      "version": "3.3.9",
      "package_manager": "maven",
      "path": "pom.xml",
      "licenses": [
        "Apache-2.0"
      ]
    },
    {
      "name": "netty",
      "version": "3.9.1.Final",
      "package_manager": "maven",
      "path": "pom.xml",
      "licenses": [
        "Apache-2.0"
      ]
    },
    {
      "name": "plexus-utils",
      "version": "3.0.22",
      "package_manager": "maven",
      "path": "pom.xml",
      "licenses": [
        "Apache-2.0"
      ]
    },
    {
      "name": "rhino",
      "version": "1.7.10",
      "package_manager": "maven",
      "path": "pom.xml",
      "licenses": [
        "MPL-2.0"
      ]
    },
    {
      "name": "shiro-core",
      "version": "1.3.1",
      "package_manager": "maven",
      "path": "pom.xml",
      "licenses": [
        "Apache-2.0"
      ]
    },
    {
      "name": "slf4j-api",
      "version": "1.6.4",
      "package_manager": "maven",
      "path": "pom.xml",
      "licenses": [
        "MIT"
      ]
    }
  ]
}
